Compute Zonal Statistics for Climate • zonalclim
…
When handling a large number of NetCDF files, each one with a large number of layers, the load to compute zonal statistics can be larger than the available computational capacity. In this situation, we can split the computational task into smaller tasks, using the zonal_tasks() function.

zonal_tasks <- create_zonal_tasks(
  nc_files_list = nc_list,
  nc_chunk_size = 5,
  sf_geom = sf_geom,
  sf_chunck_size = 5,
  zonal_functions = zonal_list
)

The function will split the NetCDF file(s) and sf contents into chunks of tasks, based on the arguments nc_chunk_size and sf_chunck_size. The key is finding a balance between chunk sizes, speed, and computational load. Less but larger chunks are faster to compute than several smaller chunks but demand more available memory.

zonal_tasks
#> # A tibble: 28 × 3
#>    rst                geom           fn   
#>    <list>             <list>         <chr>
#>  1 <SpatRstr[,111,5]> <sf [413 × 4]> mean 
#>  2 <SpatRstr[,111,5]> <sf [413 × 4]> max  
#>  3 <SpatRstr[,111,5]> <sf [413 × 4]> min  
#>  4 <SpatRstr[,111,5]> <sf [413 × 4]> stdev
#>  5 <SpatRstr[,111,5]> <sf [413 × 4]> mean 
#>  6 <SpatRstr[,111,5]> <sf [413 × 4]> max  
#>  7 <SpatRstr[,111,5]> <sf [413 × 4]> min  
#>  8 <SpatRstr[,111,5]> <sf [413 × 4]> stdev
#>  9 <SpatRstr[,111,5]> <sf [413 × 4]> mean 
#> 10 <SpatRstr[,111,5]> <sf [413 × 4]> max  
#> # ℹ 18 more rows
…
Let’s check the results.

conn <- DBI::dbConnect(RSQLite::SQLite(), db_file, extended_types = TRUE)
tables <- DBI::dbListTables(conn)
res2 <- dplyr::tbl(conn, tables[1]) %>% dplyr::collect()

res2
#> # A tibble: 51,212 × 4
#>    GID_3       date       name                    value
#>    <chr>       <date>     <chr>                   <dbl>
#>  1 MOZ.1.1.1_1 2000-01-01 2m_temperature_max_mean  306.
#>  2 MOZ.1.1.1_1 2000-01-02 2m_temperature_max_mean  305.
#>  3 MOZ.1.1.1_1 2000-01-03 2m_temperature_max_mean  299.
#>  4 MOZ.1.1.1_1 2000-01-04 2m_temperature_max_mean  302.
#>  5 MOZ.1.1.1_1 2000-01-05 2m_temperature_max_mean  304.
#>  6 MOZ.1.1.2_1 2000-01-01 2m_temperature_max_mean  306.
#>  7 MOZ.1.1.2_1 2000-01-02 2m_temperature_max_mean  305.
#>  8 MOZ.1.1.2_1 2000-01-03 2m_temperature_max_mean  300.
#>  9 MOZ.1.1.2_1 2000-01-04 2m_temperature_max_mean  302.
#> 10 MOZ.1.1.2_1 2000-01-05 2m_temperature_max_mean  304.
#> # ℹ 51,202 more rows
…
